<?xml version="1.0" encoding="UTF-8"?>
<svg width="316px" height="41px" viewBox="0 0 316 41" version="1.1" xmlns="http://www.w3.org/2000/svg" xmlns:xlink="http://www.w3.org/1999/xlink">
    <!-- Generator: Sketch 49.1 (51147) - http://www.bohemiancoding.com/sketch -->
    <title>tipzone-logo</title>
    <desc>Created with Sketch.</desc>
    <defs></defs>
    <g id="Symbols" stroke="none" stroke-width="1" fill="none" fill-rule="evenodd" font-family="GuardianCondensedItalic, Guardian Condensed Italic" font-size="64" font-style="italic" font-weight="normal">
        <g id="TIP-ZONE-Logo-Copy-2" transform="translate(-20.000000, -25.000000)">
            <g id="tipzone-logo" transform="translate(11.000000, 8.000000)">
                <text id="tip" fill="#FFFFFF">
                    <tspan x="0" y="57">tip</tspan>
                </text>
                <text id="ZONE" fill="#EF7A2A">
                    <tspan x="130" y="57">ZONE</tspan>
                </text>
            </g>
        </g>
    </g>
</svg>