{
  "Items": [
  {
    "groupId": "fd563e6c-8018-40d5-bf1d-1e7e2d2e7673",
    "updatedAt": 1518271073.629,
    "createdAt": 1518271073.629,
    "featured": "false",
    "seasonId": "WDIA18",
    "seasonName": "WC Division I, Group A 2018",
    "hasCustomStyle": "false",
    "joinLimit": 10,
    "name": "bela test 01",
    "type": "Public",
    "userId": "eu-west-2:cddad5dc-56fe-425a-a24a-e9aa566103cb"
  },
  {
    "userId": "eu-west-2:cddad5dc-56fe-425a-a24a-e9aa566103cb",
    "updatedAt": 1518271250.763,
    "createdAt": 1518271250.763,
    "featured": "false",
    "gameId": "G001",
    "gameName": "OTP Bank Liga",
    "groupId": "27fb84ba-ce8d-40ee-8b6d-5a1c89b18e61",
    "hasCustomStyle": "false",
    "joinLimit": 10,
    "name": "test bela 02",
    "type": "Private"
  },
  {
    "userId": "eu-west-2:cddad5dc-56fe-425a-a24a-e9aa566103cb",
    "updatedAt": 1518273106.479,
    "createdAt": 1518273106.479,
    "featured": "false",
    "gameId": "G002",
    "gameName": "Premier League",
    "groupId": "a6d9d654-07cc-4b4c-9c82-ca384ab0dd62",
    "hasCustomStyle": "false",
    "joinLimit": 10,
    "name": "bela masik",
    "type": "Private"
  },
  {
    "userId": "eu-west-2:cddad5dc-56fe-425a-a24a-e9aa566103cb",
    "updatedAt": 1518276154.999,
    "createdAt": 1518276154.999,
    "featured": "false",
    "gameId": "G008",
    "gameName": "Merkantil Bank Liga",
    "groupId": "7831da0e-2e53-49e7-ae91-2578f38d7a83",
    "hasCustomStyle": "false",
    "joinLimit": 10,
    "name": 876876,
    "type": "Public"
  },
  {
    "userId": "eu-west-2:cddad5dc-56fe-425a-a24a-e9aa566103cb",
    "updatedAt": 1518285703.381,
    "createdAt": 1518285703.381,
    "featured": "false",
    "gameId": "G008",
    "gameName": "Merkantil Bank Liga",
    "groupId": "88402e77-7246-4ea8-af3b-7de5a1647585",
    "hasCustomStyle": "false",
    "joinLimit": 10,
    "name": "monile test 01",
    "type": "Closed"
  },
  {
    "userId": "eu-west-2:cddad5dc-56fe-425a-a24a-e9aa566103cb",
    "updatedAt": 1518287738.409,
    "createdAt": 1518287738.409,
    "featured": "false",
    "gameId": "G008",
    "gameName": "Merkantil Bank Liga",
    "groupId": "0dc0662d-6389-41f8-81f2-f6b93142bc89",
    "hasCustomStyle": "false",
    "joinLimit": 10,
    "name": "hello view test",
    "type": "Private"
  },
  {
    "userId": "eu-west-2:cddad5dc-56fe-425a-a24a-e9aa566103cb",
    "updatedAt": 1518290392.462,
    "createdAt": 1518290392.462,
    "featured": "false",
    "gameId": "G008",
    "gameName": "Merkantil Bank Liga",
    "groupId": "14544837-514e-4f8b-b049-2eb2a74e92e7",
    "hasCustomStyle": "false",
    "joinLimit": 10,
    "name": "Kocsma teszt",
    "type": "Private"
  }
]
}
