<?xml version="1.0" encoding="UTF-8"?>
<svg width="44px" height="44px" viewBox="0 0 44 44" version="1.1" xmlns="http://www.w3.org/2000/svg" xmlns:xlink="http://www.w3.org/1999/xlink">
    <!-- Generator: Sketch 50 (54983) - http://www.bohemiancoding.com/sketch -->
    <title>googleplus</title>
    <desc>Created with Sketch.</desc>
    <defs></defs>
    <g id="Page-1" stroke="none" stroke-width="1" fill="none" fill-rule="evenodd">
        <g id="Mobile-confirm" transform="translate(-170.000000, -522.000000)">
            <g id="footer" transform="translate(0.000000, 496.000000)">
                <g id="social-icons">
                    <g id="googleplus" transform="translate(170.000000, 26.000000)">
                        <rect id="Rectangle" x="0" y="0" width="44" height="44"></rect>
                        <circle id="Oval" stroke="#FFFFFF" stroke-width="2" cx="22" cy="22" r="21"></circle>
                        <path d="M18.2130439,33.8627117 C15.4977734,33.8627117 13.5381614,32.1317615 13.5381614,30.053269 C13.5381614,28.0153457 15.9702278,26.3182032 18.6841561,26.3479539 C19.3163323,26.3560677 19.9069003,26.4574906 20.4424381,26.6319379 C21.9148315,27.6650988 22.9724851,28.2479421 23.2704535,29.4244473 C23.3268259,29.6638053 23.3576965,29.9072201 23.3576965,30.1587488 C23.3576965,32.2385936 22.0275763,33.8627117 18.2130439,33.8627117 M18.9257521,21.6703316 C17.1043867,21.6148871 15.3729488,19.6175329 15.058874,17.2077258 C14.7447992,14.7979186 15.9662012,12.9533749 17.7875665,13.0074671 C19.6075897,13.0629116 21.3403699,14.9953551 21.6544447,17.4065146 C21.9685195,19.8163217 20.7471175,21.7257761 18.9257521,21.6703316 M22.7013607,25.239064 C22.0624735,24.7833373 20.8424137,23.6757996 20.8424137,23.0239887 C20.8424137,22.2585842 21.0585079,21.8839958 22.1980357,20.9860654 C23.3670919,20.0651458 24.1952293,18.7709901 24.1952293,17.2672272 C24.1952293,15.474071 23.4033313,13.7282455 21.9161737,13.1521637 L24.1576477,13.1521637 L25.7401015,12 L18.6693919,12 C15.5018,12 12.5180894,14.4192733 12.5180894,17.2212488 C12.5180894,20.0854304 14.6790314,22.3965193 17.9029957,22.3965193 C18.1284853,22.3965193 18.3445795,22.3924624 18.5579893,22.3762347 C18.3499483,22.7792215 18.1982797,23.2349483 18.1982797,23.7055503 C18.1982797,24.5020579 18.6237571,25.1484595 19.1619793,25.6745061 C18.7552927,25.6745061 18.3620281,25.6866769 17.9365507,25.6866769 C14.0106158,25.6866769 10.9879814,28.2046684 10.9879814,30.8186736 C10.9879814,33.3907573 14.3018732,35 18.2264659,35 C22.7013607,35 25.1750353,32.4414393 25.1750353,29.8680033 C25.1750353,27.8057385 24.5697031,26.5697319 22.7013607,25.239064 M32.9879814,21.8799389 L30.2364714,21.8799389 L30.2364714,19.107714 L28.0204992,19.107714 L28.0204992,21.8799389 L25.2689893,21.8799389 L25.2689893,24.1125941 L28.0204992,24.1125941 L28.0204992,26.8848189 L30.2364714,26.8848189 L30.2364714,24.1125941 L32.9879814,24.1125941 L32.9879814,21.8799389" id="Shape" fill="#FFFFFF"></path>
                    </g>
                </g>
            </g>
        </g>
    </g>
</svg>