{
    "generated_at": "2018-02-13T07:36:38+00:00",
    "schema": "http:\/\/schemas.sportradar.com\/bsa\/icehockey\/v1\/json\/endpoints\/icehockey\/tournament_schedule.json",
    "tournament": {
        "id": "sr:tournament:3",
        "name": "World Championship",
        "sport": {
            "id": "sr:sport:4",
            "name": "Ice Hockey"
        },
        "category": {
            "id": "sr:category:56",
            "name": "International"
        }
    },
    "sport_events": [
      {
        "id": "sr:match:13004496",
        "scheduled": "2018-05-04T14:15:00+00:00",
        "start_time_tbd": false,
        "status": "not_started",
        "tournament_round": {
            "type": "group",
            "number": 1,
            "group": "A"
        },
        "season": {
            "id": "sr:season:47534",
            "name": "World Championship 2018",
            "start_date": "2018-05-04",
            "end_date": "2018-05-21",
            "year": "2018",
            "tournament_id": "sr:tournament:3"
        },
        "tournament": {
            "id": "sr:tournament:3",
            "name": "World Championship",
            "sport": {
                "id": "sr:sport:4",
                "name": "Ice Hockey"
            },
            "category": {
                "id": "sr:category:56",
                "name": "International"
            }
        },
        "competitors": [{
            "id": "sr:competitor:5737",
            "name": "Russia",
            "country": "Russia",
            "country_code": "RUS",
            "abbreviation": "RUS",
            "qualifier": "home"
        }, {
            "id": "sr:competitor:7052",
            "name": "France",
            "country": "France",
            "country_code": "FRA",
            "abbreviation": "FRA",
            "qualifier": "away"
        }]
    }, {
        "id": "sr:match:13004602",
        "scheduled": "2018-05-04T14:15:00+00:00",
        "start_time_tbd": false,
        "status": "not_started",
        "tournament_round": {
            "type": "group",
            "number": 1,
            "group": "B"
        },
        "season": {
            "id": "sr:season:47534",
            "name": "World Championship 2018",
            "start_date": "2018-05-04",
            "end_date": "2018-05-21",
            "year": "2018",
            "tournament_id": "sr:tournament:3"
        },
        "tournament": {
            "id": "sr:tournament:3",
            "name": "World Championship",
            "sport": {
                "id": "sr:sport:4",
                "name": "Ice Hockey"
            },
            "category": {
                "id": "sr:category:56",
                "name": "International"
            }
        },
        "competitors": [{
            "id": "sr:competitor:5738",
            "name": "USA",
            "country": "USA",
            "country_code": "USA",
            "abbreviation": "USA",
            "qualifier": "home"
        }, {
            "id": "sr:competitor:5729",
            "name": "Canada",
            "country": "Canada",
            "country_code": "CAN",
            "abbreviation": "CAN",
            "qualifier": "away"
        }]
    }, {
        "id": "sr:match:13004500",
        "scheduled": "2018-05-04T18:15:00+00:00",
        "start_time_tbd": false,
        "status": "not_started",
        "tournament_round": {
            "type": "group",
            "number": 1,
            "group": "A"
        },
        "season": {
            "id": "sr:season:47534",
            "name": "World Championship 2018",
            "start_date": "2018-05-04",
            "end_date": "2018-05-21",
            "year": "2018",
            "tournament_id": "sr:tournament:3"
        },
        "tournament": {
            "id": "sr:tournament:3",
            "name": "World Championship",
            "sport": {
                "id": "sr:sport:4",
                "name": "Ice Hockey"
            },
            "category": {
                "id": "sr:category:56",
                "name": "International"
            }
        },
        "competitors": [{
            "id": "sr:competitor:5735",
            "name": "Sweden",
            "country": "Sweden",
            "country_code": "SWE",
            "abbreviation": "SWE",
            "qualifier": "home"
        }, {
            "id": "sr:competitor:5916",
            "name": "Belarus",
            "country": "Belarus",
            "country_code": "BLR",
            "abbreviation": "BLR",
            "qualifier": "away"
        }]
    }, {
        "id": "sr:match:13004604",
        "scheduled": "2018-05-04T18:15:00+00:00",
        "start_time_tbd": false,
        "status": "not_started",
        "tournament_round": {
            "type": "group",
            "number": 1,
            "group": "B"
        },
        "season": {
            "id": "sr:season:47534",
            "name": "World Championship 2018",
            "start_date": "2018-05-04",
            "end_date": "2018-05-21",
            "year": "2018",
            "tournament_id": "sr:tournament:3"
        },
        "tournament": {
            "id": "sr:tournament:3",
            "name": "World Championship",
            "sport": {
                "id": "sr:sport:4",
                "name": "Ice Hockey"
            },
            "category": {
                "id": "sr:category:56",
                "name": "International"
            }
        },
        "competitors": [{
            "id": "sr:competitor:5732",
            "name": "Germany",
            "country": "Germany",
            "country_code": "DEU",
            "abbreviation": "GER",
            "qualifier": "home"
        }, {
            "id": "sr:competitor:5917",
            "name": "Denmark",
            "country": "Denmark",
            "country_code": "DNK",
            "abbreviation": "DEN",
            "qualifier": "away"
        }]
    }, {
        "id": "sr:match:13004504",
        "scheduled": "2018-05-05T10:15:00+00:00",
        "start_time_tbd": false,
        "status": "not_started",
        "tournament_round": {
            "type": "group",
            "number": 1,
            "group": "A"
        },
        "season": {
            "id": "sr:season:47534",
            "name": "World Championship 2018",
            "start_date": "2018-05-04",
            "end_date": "2018-05-21",
            "year": "2018",
            "tournament_id": "sr:tournament:3"
        },
        "tournament": {
            "id": "sr:tournament:3",
            "name": "World Championship",
            "sport": {
                "id": "sr:sport:4",
                "name": "Ice Hockey"
            },
            "category": {
                "id": "sr:category:56",
                "name": "International"
            }
        },
        "competitors": [{
            "id": "sr:competitor:5734",
            "name": "Switzerland",
            "country": "Switzerland",
            "country_code": "CHE",
            "abbreviation": "SUI",
            "qualifier": "home"
        }, {
            "id": "sr:competitor:5720",
            "name": "Austria",
            "country": "Austria",
            "country_code": "AUT",
            "abbreviation": "AUT",
            "qualifier": "away"
        }]
    }, {
        "id": "sr:match:13004606",
        "scheduled": "2018-05-05T10:15:00+00:00",
        "start_time_tbd": false,
        "status": "not_started",
        "tournament_round": {
            "type": "group",
            "number": 1,
            "group": "B"
        },
        "season": {
            "id": "sr:season:47534",
            "name": "World Championship 2018",
            "start_date": "2018-05-04",
            "end_date": "2018-05-21",
            "year": "2018",
            "tournament_id": "sr:tournament:3"
        },
        "tournament": {
            "id": "sr:tournament:3",
            "name": "World Championship",
            "sport": {
                "id": "sr:sport:4",
                "name": "Ice Hockey"
            },
            "category": {
                "id": "sr:category:56",
                "name": "International"
            }
        },
        "competitors": [{
            "id": "sr:competitor:5913",
            "name": "Norway",
            "country": "Norway",
            "country_code": "NOR",
            "abbreviation": "NOR",
            "qualifier": "home"
        }, {
            "id": "sr:competitor:5739",
            "name": "Latvia",
            "country": "Latvia",
            "country_code": "LVA",
            "abbreviation": "LAT",
            "qualifier": "away"
        }]
    }, {
        "id": "sr:match:13004508",
        "scheduled": "2018-05-05T14:15:00+00:00",
        "start_time_tbd": false,
        "status": "not_started",
        "tournament_round": {
            "type": "group",
            "number": 1,
            "group": "A"
        },
        "season": {
            "id": "sr:season:47534",
            "name": "World Championship 2018",
            "start_date": "2018-05-04",
            "end_date": "2018-05-21",
            "year": "2018",
            "tournament_id": "sr:tournament:3"
        },
        "tournament": {
            "id": "sr:tournament:3",
            "name": "World Championship",
            "sport": {
                "id": "sr:sport:4",
                "name": "Ice Hockey"
            },
            "category": {
                "id": "sr:category:56",
                "name": "International"
            }
        },
        "competitors": [{
            "id": "sr:competitor:7052",
            "name": "France",
            "country": "France",
            "country_code": "FRA",
            "abbreviation": "FRA",
            "qualifier": "home"
        }, {
            "id": "sr:competitor:5916",
            "name": "Belarus",
            "country": "Belarus",
            "country_code": "BLR",
            "abbreviation": "BLR",
            "qualifier": "away"
        }]
    }, {
        "id": "sr:match:13004608",
        "scheduled": "2018-05-05T14:15:00+00:00",
        "start_time_tbd": false,
        "status": "not_started",
        "tournament_round": {
            "type": "group",
            "number": 1,
            "group": "B"
        },
        "season": {
            "id": "sr:season:47534",
            "name": "World Championship 2018",
            "start_date": "2018-05-04",
            "end_date": "2018-05-21",
            "year": "2018",
            "tournament_id": "sr:tournament:3"
        },
        "tournament": {
            "id": "sr:tournament:3",
            "name": "World Championship",
            "sport": {
                "id": "sr:sport:4",
                "name": "Ice Hockey"
            },
            "category": {
                "id": "sr:category:56",
                "name": "International"
            }
        },
        "competitors": [{
            "id": "sr:competitor:5731",
            "name": "Finland",
            "country": "Finland",
            "country_code": "FIN",
            "abbreviation": "FIN",
            "qualifier": "home"
        }, {
            "id": "sr:competitor:8001",
            "name": "Republic of Korea",
            "country": "Republic of Korea",
            "country_code": "KOR",
            "abbreviation": "RK",
            "qualifier": "away"
        }]
    }, {
        "id": "sr:match:13004510",
        "scheduled": "2018-05-05T18:15:00+00:00",
        "start_time_tbd": false,
        "status": "not_started",
        "tournament_round": {
            "type": "group",
            "number": 1,
            "group": "A"
        },
        "season": {
            "id": "sr:season:47534",
            "name": "World Championship 2018",
            "start_date": "2018-05-04",
            "end_date": "2018-05-21",
            "year": "2018",
            "tournament_id": "sr:tournament:3"
        },
        "tournament": {
            "id": "sr:tournament:3",
            "name": "World Championship",
            "sport": {
                "id": "sr:sport:4",
                "name": "Ice Hockey"
            },
            "category": {
                "id": "sr:category:56",
                "name": "International"
            }
        },
        "competitors": [{
            "id": "sr:competitor:5730",
            "name": "Czech Republic",
            "country": "Czech Republic",
            "country_code": "CZE",
            "abbreviation": "CZE",
            "qualifier": "home"
        }, {
            "id": "sr:competitor:5736",
            "name": "Slovakia",
            "country": "Slovakia",
            "country_code": "SVK",
            "abbreviation": "SVK",
            "qualifier": "away"
        }]
    }, {
        "id": "sr:match:13004610",
        "scheduled": "2018-05-05T18:15:00+00:00",
        "start_time_tbd": false,
        "status": "not_started",
        "tournament_round": {
            "type": "group",
            "number": 1,
            "group": "B"
        },
        "season": {
            "id": "sr:season:47534",
            "name": "World Championship 2018",
            "start_date": "2018-05-04",
            "end_date": "2018-05-21",
            "year": "2018",
            "tournament_id": "sr:tournament:3"
        },
        "tournament": {
            "id": "sr:tournament:3",
            "name": "World Championship",
            "sport": {
                "id": "sr:sport:4",
                "name": "Ice Hockey"
            },
            "category": {
                "id": "sr:category:56",
                "name": "International"
            }
        },
        "competitors": [{
            "id": "sr:competitor:5917",
            "name": "Denmark",
            "country": "Denmark",
            "country_code": "DNK",
            "abbreviation": "DEN",
            "qualifier": "home"
        }, {
            "id": "sr:competitor:5738",
            "name": "USA",
            "country": "USA",
            "country_code": "USA",
            "abbreviation": "USA",
            "qualifier": "away"
        }]
    }, {
        "id": "sr:match:13004516",
        "scheduled": "2018-05-06T10:15:00+00:00",
        "start_time_tbd": false,
        "status": "not_started",
        "tournament_round": {
            "type": "group",
            "number": 1,
            "group": "A"
        },
        "season": {
            "id": "sr:season:47534",
            "name": "World Championship 2018",
            "start_date": "2018-05-04",
            "end_date": "2018-05-21",
            "year": "2018",
            "tournament_id": "sr:tournament:3"
        },
        "tournament": {
            "id": "sr:tournament:3",
            "name": "World Championship",
            "sport": {
                "id": "sr:sport:4",
                "name": "Ice Hockey"
            },
            "category": {
                "id": "sr:category:56",
                "name": "International"
            }
        },
        "competitors": [{
            "id": "sr:competitor:5720",
            "name": "Austria",
            "country": "Austria",
            "country_code": "AUT",
            "abbreviation": "AUT",
            "qualifier": "home"
        }, {
            "id": "sr:competitor:5737",
            "name": "Russia",
            "country": "Russia",
            "country_code": "RUS",
            "abbreviation": "RUS",
            "qualifier": "away"
        }]
    }, {
        "id": "sr:match:13004612",
        "scheduled": "2018-05-06T10:15:00+00:00",
        "start_time_tbd": false,
        "status": "not_started",
        "tournament_round": {
            "type": "group",
            "number": 1,
            "group": "B"
        },
        "season": {
            "id": "sr:season:47534",
            "name": "World Championship 2018",
            "start_date": "2018-05-04",
            "end_date": "2018-05-21",
            "year": "2018",
            "tournament_id": "sr:tournament:3"
        },
        "tournament": {
            "id": "sr:tournament:3",
            "name": "World Championship",
            "sport": {
                "id": "sr:sport:4",
                "name": "Ice Hockey"
            },
            "category": {
                "id": "sr:category:56",
                "name": "International"
            }
        },
        "competitors": [{
            "id": "sr:competitor:8001",
            "name": "Republic of Korea",
            "country": "Republic of Korea",
            "country_code": "KOR",
            "abbreviation": "RK",
            "qualifier": "home"
        }, {
            "id": "sr:competitor:5729",
            "name": "Canada",
            "country": "Canada",
            "country_code": "CAN",
            "abbreviation": "CAN",
            "qualifier": "away"
        }]
    }, {
        "id": "sr:match:13004518",
        "scheduled": "2018-05-06T14:15:00+00:00",
        "start_time_tbd": false,
        "status": "not_started",
        "tournament_round": {
            "type": "group",
            "number": 1,
            "group": "A"
        },
        "season": {
            "id": "sr:season:47534",
            "name": "World Championship 2018",
            "start_date": "2018-05-04",
            "end_date": "2018-05-21",
            "year": "2018",
            "tournament_id": "sr:tournament:3"
        },
        "tournament": {
            "id": "sr:tournament:3",
            "name": "World Championship",
            "sport": {
                "id": "sr:sport:4",
                "name": "Ice Hockey"
            },
            "category": {
                "id": "sr:category:56",
                "name": "International"
            }
        },
        "competitors": [{
            "id": "sr:competitor:5735",
            "name": "Sweden",
            "country": "Sweden",
            "country_code": "SWE",
            "abbreviation": "SWE",
            "qualifier": "home"
        }, {
            "id": "sr:competitor:5730",
            "name": "Czech Republic",
            "country": "Czech Republic",
            "country_code": "CZE",
            "abbreviation": "CZE",
            "qualifier": "away"
        }]
    }, {
        "id": "sr:match:13004614",
        "scheduled": "2018-05-06T14:15:00+00:00",
        "start_time_tbd": false,
        "status": "not_started",
        "tournament_round": {
            "type": "group",
            "number": 1,
            "group": "B"
        },
        "season": {
            "id": "sr:season:47534",
            "name": "World Championship 2018",
            "start_date": "2018-05-04",
            "end_date": "2018-05-21",
            "year": "2018",
            "tournament_id": "sr:tournament:3"
        },
        "tournament": {
            "id": "sr:tournament:3",
            "name": "World Championship",
            "sport": {
                "id": "sr:sport:4",
                "name": "Ice Hockey"
            },
            "category": {
                "id": "sr:category:56",
                "name": "International"
            }
        },
        "competitors": [{
            "id": "sr:competitor:5732",
            "name": "Germany",
            "country": "Germany",
            "country_code": "DEU",
            "abbreviation": "GER",
            "qualifier": "home"
        }, {
            "id": "sr:competitor:5913",
            "name": "Norway",
            "country": "Norway",
            "country_code": "NOR",
            "abbreviation": "NOR",
            "qualifier": "away"
        }]
    }, {
        "id": "sr:match:13004520",
        "scheduled": "2018-05-06T18:15:00+00:00",
        "start_time_tbd": false,
        "status": "not_started",
        "tournament_round": {
            "type": "group",
            "number": 1,
            "group": "A"
        },
        "season": {
            "id": "sr:season:47534",
            "name": "World Championship 2018",
            "start_date": "2018-05-04",
            "end_date": "2018-05-21",
            "year": "2018",
            "tournament_id": "sr:tournament:3"
        },
        "tournament": {
            "id": "sr:tournament:3",
            "name": "World Championship",
            "sport": {
                "id": "sr:sport:4",
                "name": "Ice Hockey"
            },
            "category": {
                "id": "sr:category:56",
                "name": "International"
            }
        },
        "competitors": [{
            "id": "sr:competitor:5736",
            "name": "Slovakia",
            "country": "Slovakia",
            "country_code": "SVK",
            "abbreviation": "SVK",
            "qualifier": "home"
        }, {
            "id": "sr:competitor:5734",
            "name": "Switzerland",
            "country": "Switzerland",
            "country_code": "CHE",
            "abbreviation": "SUI",
            "qualifier": "away"
        }]
    }, {
        "id": "sr:match:13004616",
        "scheduled": "2018-05-06T18:15:00+00:00",
        "start_time_tbd": false,
        "status": "not_started",
        "tournament_round": {
            "type": "group",
            "number": 1,
            "group": "B"
        },
        "season": {
            "id": "sr:season:47534",
            "name": "World Championship 2018",
            "start_date": "2018-05-04",
            "end_date": "2018-05-21",
            "year": "2018",
            "tournament_id": "sr:tournament:3"
        },
        "tournament": {
            "id": "sr:tournament:3",
            "name": "World Championship",
            "sport": {
                "id": "sr:sport:4",
                "name": "Ice Hockey"
            },
            "category": {
                "id": "sr:category:56",
                "name": "International"
            }
        },
        "competitors": [{
            "id": "sr:competitor:5739",
            "name": "Latvia",
            "country": "Latvia",
            "country_code": "LVA",
            "abbreviation": "LAT",
            "qualifier": "home"
        }, {
            "id": "sr:competitor:5731",
            "name": "Finland",
            "country": "Finland",
            "country_code": "FIN",
            "abbreviation": "FIN",
            "qualifier": "away"
        }]
    }, {
        "id": "sr:match:13004522",
        "scheduled": "2018-05-07T14:15:00+00:00",
        "start_time_tbd": false,
        "status": "not_started",
        "tournament_round": {
            "type": "group",
            "number": 1,
            "group": "A"
        },
        "season": {
            "id": "sr:season:47534",
            "name": "World Championship 2018",
            "start_date": "2018-05-04",
            "end_date": "2018-05-21",
            "year": "2018",
            "tournament_id": "sr:tournament:3"
        },
        "tournament": {
            "id": "sr:tournament:3",
            "name": "World Championship",
            "sport": {
                "id": "sr:sport:4",
                "name": "Ice Hockey"
            },
            "category": {
                "id": "sr:category:56",
                "name": "International"
            }
        },
        "competitors": [{
            "id": "sr:competitor:5916",
            "name": "Belarus",
            "country": "Belarus",
            "country_code": "BLR",
            "abbreviation": "BLR",
            "qualifier": "home"
        }, {
            "id": "sr:competitor:5737",
            "name": "Russia",
            "country": "Russia",
            "country_code": "RUS",
            "abbreviation": "RUS",
            "qualifier": "away"
        }]
    }, {
        "id": "sr:match:13004618",
        "scheduled": "2018-05-07T14:15:00+00:00",
        "start_time_tbd": false,
        "status": "not_started",
        "tournament_round": {
            "type": "group",
            "number": 1,
            "group": "B"
        },
        "season": {
            "id": "sr:season:47534",
            "name": "World Championship 2018",
            "start_date": "2018-05-04",
            "end_date": "2018-05-21",
            "year": "2018",
            "tournament_id": "sr:tournament:3"
        },
        "tournament": {
            "id": "sr:tournament:3",
            "name": "World Championship",
            "sport": {
                "id": "sr:sport:4",
                "name": "Ice Hockey"
            },
            "category": {
                "id": "sr:category:56",
                "name": "International"
            }
        },
        "competitors": [{
            "id": "sr:competitor:5738",
            "name": "USA",
            "country": "USA",
            "country_code": "USA",
            "abbreviation": "USA",
            "qualifier": "home"
        }, {
            "id": "sr:competitor:5732",
            "name": "Germany",
            "country": "Germany",
            "country_code": "DEU",
            "abbreviation": "GER",
            "qualifier": "away"
        }]
    }, {
        "id": "sr:match:13004546",
        "scheduled": "2018-05-07T18:15:00+00:00",
        "start_time_tbd": false,
        "status": "not_started",
        "tournament_round": {
            "type": "group",
            "number": 1,
            "group": "A"
        },
        "season": {
            "id": "sr:season:47534",
            "name": "World Championship 2018",
            "start_date": "2018-05-04",
            "end_date": "2018-05-21",
            "year": "2018",
            "tournament_id": "sr:tournament:3"
        },
        "tournament": {
            "id": "sr:tournament:3",
            "name": "World Championship",
            "sport": {
                "id": "sr:sport:4",
                "name": "Ice Hockey"
            },
            "category": {
                "id": "sr:category:56",
                "name": "International"
            }
        },
        "competitors": [{
            "id": "sr:competitor:5735",
            "name": "Sweden",
            "country": "Sweden",
            "country_code": "SWE",
            "abbreviation": "SWE",
            "qualifier": "home"
        }, {
            "id": "sr:competitor:7052",
            "name": "France",
            "country": "France",
            "country_code": "FRA",
            "abbreviation": "FRA",
            "qualifier": "away"
        }]
    }, {
        "id": "sr:match:13004620",
        "scheduled": "2018-05-07T18:15:00+00:00",
        "start_time_tbd": false,
        "status": "not_started",
        "tournament_round": {
            "type": "group",
            "number": 1,
            "group": "B"
        },
        "season": {
            "id": "sr:season:47534",
            "name": "World Championship 2018",
            "start_date": "2018-05-04",
            "end_date": "2018-05-21",
            "year": "2018",
            "tournament_id": "sr:tournament:3"
        },
        "tournament": {
            "id": "sr:tournament:3",
            "name": "World Championship",
            "sport": {
                "id": "sr:sport:4",
                "name": "Ice Hockey"
            },
            "category": {
                "id": "sr:category:56",
                "name": "International"
            }
        },
        "competitors": [{
            "id": "sr:competitor:5729",
            "name": "Canada",
            "country": "Canada",
            "country_code": "CAN",
            "abbreviation": "CAN",
            "qualifier": "home"
        }, {
            "id": "sr:competitor:5917",
            "name": "Denmark",
            "country": "Denmark",
            "country_code": "DNK",
            "abbreviation": "DEN",
            "qualifier": "away"
        }]
    }, {
        "id": "sr:match:13004548",
        "scheduled": "2018-05-08T14:15:00+00:00",
        "start_time_tbd": false,
        "status": "not_started",
        "tournament_round": {
            "type": "group",
            "number": 1,
            "group": "A"
        },
        "season": {
            "id": "sr:season:47534",
            "name": "World Championship 2018",
            "start_date": "2018-05-04",
            "end_date": "2018-05-21",
            "year": "2018",
            "tournament_id": "sr:tournament:3"
        },
        "tournament": {
            "id": "sr:tournament:3",
            "name": "World Championship",
            "sport": {
                "id": "sr:sport:4",
                "name": "Ice Hockey"
            },
            "category": {
                "id": "sr:category:56",
                "name": "International"
            }
        },
        "competitors": [{
            "id": "sr:competitor:5720",
            "name": "Austria",
            "country": "Austria",
            "country_code": "AUT",
            "abbreviation": "AUT",
            "qualifier": "home"
        }, {
            "id": "sr:competitor:5736",
            "name": "Slovakia",
            "country": "Slovakia",
            "country_code": "SVK",
            "abbreviation": "SVK",
            "qualifier": "away"
        }]
    }, {
        "id": "sr:match:13004622",
        "scheduled": "2018-05-08T14:15:00+00:00",
        "start_time_tbd": false,
        "status": "not_started",
        "tournament_round": {
            "type": "group",
            "number": 1,
            "group": "B"
        },
        "season": {
            "id": "sr:season:47534",
            "name": "World Championship 2018",
            "start_date": "2018-05-04",
            "end_date": "2018-05-21",
            "year": "2018",
            "tournament_id": "sr:tournament:3"
        },
        "tournament": {
            "id": "sr:tournament:3",
            "name": "World Championship",
            "sport": {
                "id": "sr:sport:4",
                "name": "Ice Hockey"
            },
            "category": {
                "id": "sr:category:56",
                "name": "International"
            }
        },
        "competitors": [{
            "id": "sr:competitor:8001",
            "name": "Republic of Korea",
            "country": "Republic of Korea",
            "country_code": "KOR",
            "abbreviation": "RK",
            "qualifier": "home"
        }, {
            "id": "sr:competitor:5739",
            "name": "Latvia",
            "country": "Latvia",
            "country_code": "LVA",
            "abbreviation": "LAT",
            "qualifier": "away"
        }]
    }, {
        "id": "sr:match:13004550",
        "scheduled": "2018-05-08T18:15:00+00:00",
        "start_time_tbd": false,
        "status": "not_started",
        "tournament_round": {
            "type": "group",
            "number": 1,
            "group": "A"
        },
        "season": {
            "id": "sr:season:47534",
            "name": "World Championship 2018",
            "start_date": "2018-05-04",
            "end_date": "2018-05-21",
            "year": "2018",
            "tournament_id": "sr:tournament:3"
        },
        "tournament": {
            "id": "sr:tournament:3",
            "name": "World Championship",
            "sport": {
                "id": "sr:sport:4",
                "name": "Ice Hockey"
            },
            "category": {
                "id": "sr:category:56",
                "name": "International"
            }
        },
        "competitors": [{
            "id": "sr:competitor:5730",
            "name": "Czech Republic",
            "country": "Czech Republic",
            "country_code": "CZE",
            "abbreviation": "CZE",
            "qualifier": "home"
        }, {
            "id": "sr:competitor:5734",
            "name": "Switzerland",
            "country": "Switzerland",
            "country_code": "CHE",
            "abbreviation": "SUI",
            "qualifier": "away"
        }]
    }, {
        "id": "sr:match:13004624",
        "scheduled": "2018-05-08T18:15:00+00:00",
        "start_time_tbd": false,
        "status": "not_started",
        "tournament_round": {
            "type": "group",
            "number": 1,
            "group": "B"
        },
        "season": {
            "id": "sr:season:47534",
            "name": "World Championship 2018",
            "start_date": "2018-05-04",
            "end_date": "2018-05-21",
            "year": "2018",
            "tournament_id": "sr:tournament:3"
        },
        "tournament": {
            "id": "sr:tournament:3",
            "name": "World Championship",
            "sport": {
                "id": "sr:sport:4",
                "name": "Ice Hockey"
            },
            "category": {
                "id": "sr:category:56",
                "name": "International"
            }
        },
        "competitors": [{
            "id": "sr:competitor:5731",
            "name": "Finland",
            "country": "Finland",
            "country_code": "FIN",
            "abbreviation": "FIN",
            "qualifier": "home"
        }, {
            "id": "sr:competitor:5913",
            "name": "Norway",
            "country": "Norway",
            "country_code": "NOR",
            "abbreviation": "NOR",
            "qualifier": "away"
        }]
    }, {
        "id": "sr:match:13004552",
        "scheduled": "2018-05-09T14:15:00+00:00",
        "start_time_tbd": false,
        "status": "not_started",
        "tournament_round": {
            "type": "group",
            "number": 1,
            "group": "A"
        },
        "season": {
            "id": "sr:season:47534",
            "name": "World Championship 2018",
            "start_date": "2018-05-04",
            "end_date": "2018-05-21",
            "year": "2018",
            "tournament_id": "sr:tournament:3"
        },
        "tournament": {
            "id": "sr:tournament:3",
            "name": "World Championship",
            "sport": {
                "id": "sr:sport:4",
                "name": "Ice Hockey"
            },
            "category": {
                "id": "sr:category:56",
                "name": "International"
            }
        },
        "competitors": [{
            "id": "sr:competitor:5734",
            "name": "Switzerland",
            "country": "Switzerland",
            "country_code": "CHE",
            "abbreviation": "SUI",
            "qualifier": "home"
        }, {
            "id": "sr:competitor:5916",
            "name": "Belarus",
            "country": "Belarus",
            "country_code": "BLR",
            "abbreviation": "BLR",
            "qualifier": "away"
        }]
    }, {
        "id": "sr:match:13004626",
        "scheduled": "2018-05-09T14:15:00+00:00",
        "start_time_tbd": false,
        "status": "not_started",
        "tournament_round": {
            "type": "group",
            "number": 1,
            "group": "B"
        },
        "season": {
            "id": "sr:season:47534",
            "name": "World Championship 2018",
            "start_date": "2018-05-04",
            "end_date": "2018-05-21",
            "year": "2018",
            "tournament_id": "sr:tournament:3"
        },
        "tournament": {
            "id": "sr:tournament:3",
            "name": "World Championship",
            "sport": {
                "id": "sr:sport:4",
                "name": "Ice Hockey"
            },
            "category": {
                "id": "sr:category:56",
                "name": "International"
            }
        },
        "competitors": [{
            "id": "sr:competitor:5732",
            "name": "Germany",
            "country": "Germany",
            "country_code": "DEU",
            "abbreviation": "GER",
            "qualifier": "home"
        }, {
            "id": "sr:competitor:8001",
            "name": "Republic of Korea",
            "country": "Republic of Korea",
            "country_code": "KOR",
            "abbreviation": "RK",
            "qualifier": "away"
        }]
    }, {
        "id": "sr:match:13004554",
        "scheduled": "2018-05-09T18:15:00+00:00",
        "start_time_tbd": false,
        "status": "not_started",
        "tournament_round": {
            "type": "group",
            "number": 1,
            "group": "A"
        },
        "season": {
            "id": "sr:season:47534",
            "name": "World Championship 2018",
            "start_date": "2018-05-04",
            "end_date": "2018-05-21",
            "year": "2018",
            "tournament_id": "sr:tournament:3"
        },
        "tournament": {
            "id": "sr:tournament:3",
            "name": "World Championship",
            "sport": {
                "id": "sr:sport:4",
                "name": "Ice Hockey"
            },
            "category": {
                "id": "sr:category:56",
                "name": "International"
            }
        },
        "competitors": [{
            "id": "sr:competitor:5735",
            "name": "Sweden",
            "country": "Sweden",
            "country_code": "SWE",
            "abbreviation": "SWE",
            "qualifier": "home"
        }, {
            "id": "sr:competitor:5720",
            "name": "Austria",
            "country": "Austria",
            "country_code": "AUT",
            "abbreviation": "AUT",
            "qualifier": "away"
        }]
    }, {
        "id": "sr:match:13004628",
        "scheduled": "2018-05-09T18:15:00+00:00",
        "start_time_tbd": false,
        "status": "not_started",
        "tournament_round": {
            "type": "group",
            "number": 1,
            "group": "B"
        },
        "season": {
            "id": "sr:season:47534",
            "name": "World Championship 2018",
            "start_date": "2018-05-04",
            "end_date": "2018-05-21",
            "year": "2018",
            "tournament_id": "sr:tournament:3"
        },
        "tournament": {
            "id": "sr:tournament:3",
            "name": "World Championship",
            "sport": {
                "id": "sr:sport:4",
                "name": "Ice Hockey"
            },
            "category": {
                "id": "sr:category:56",
                "name": "International"
            }
        },
        "competitors": [{
            "id": "sr:competitor:5731",
            "name": "Finland",
            "country": "Finland",
            "country_code": "FIN",
            "abbreviation": "FIN",
            "qualifier": "home"
        }, {
            "id": "sr:competitor:5917",
            "name": "Denmark",
            "country": "Denmark",
            "country_code": "DNK",
            "abbreviation": "DEN",
            "qualifier": "away"
        }]
    }, {
        "id": "sr:match:13004556",
        "scheduled": "2018-05-10T14:15:00+00:00",
        "start_time_tbd": false,
        "status": "not_started",
        "tournament_round": {
            "type": "group",
            "number": 1,
            "group": "A"
        },
        "season": {
            "id": "sr:season:47534",
            "name": "World Championship 2018",
            "start_date": "2018-05-04",
            "end_date": "2018-05-21",
            "year": "2018",
            "tournament_id": "sr:tournament:3"
        },
        "tournament": {
            "id": "sr:tournament:3",
            "name": "World Championship",
            "sport": {
                "id": "sr:sport:4",
                "name": "Ice Hockey"
            },
            "category": {
                "id": "sr:category:56",
                "name": "International"
            }
        },
        "competitors": [{
            "id": "sr:competitor:5736",
            "name": "Slovakia",
            "country": "Slovakia",
            "country_code": "SVK",
            "abbreviation": "SVK",
            "qualifier": "home"
        }, {
            "id": "sr:competitor:7052",
            "name": "France",
            "country": "France",
            "country_code": "FRA",
            "abbreviation": "FRA",
            "qualifier": "away"
        }]
    }, {
        "id": "sr:match:13004630",
        "scheduled": "2018-05-10T14:15:00+00:00",
        "start_time_tbd": false,
        "status": "not_started",
        "tournament_round": {
            "type": "group",
            "number": 1,
            "group": "B"
        },
        "season": {
            "id": "sr:season:47534",
            "name": "World Championship 2018",
            "start_date": "2018-05-04",
            "end_date": "2018-05-21",
            "year": "2018",
            "tournament_id": "sr:tournament:3"
        },
        "tournament": {
            "id": "sr:tournament:3",
            "name": "World Championship",
            "sport": {
                "id": "sr:sport:4",
                "name": "Ice Hockey"
            },
            "category": {
                "id": "sr:category:56",
                "name": "International"
            }
        },
        "competitors": [{
            "id": "sr:competitor:5738",
            "name": "USA",
            "country": "USA",
            "country_code": "USA",
            "abbreviation": "USA",
            "qualifier": "home"
        }, {
            "id": "sr:competitor:5739",
            "name": "Latvia",
            "country": "Latvia",
            "country_code": "LVA",
            "abbreviation": "LAT",
            "qualifier": "away"
        }]
    }, {
        "id": "sr:match:13004558",
        "scheduled": "2018-05-10T18:15:00+00:00",
        "start_time_tbd": false,
        "status": "not_started",
        "tournament_round": {
            "type": "group",
            "number": 1,
            "group": "A"
        },
        "season": {
            "id": "sr:season:47534",
            "name": "World Championship 2018",
            "start_date": "2018-05-04",
            "end_date": "2018-05-21",
            "year": "2018",
            "tournament_id": "sr:tournament:3"
        },
        "tournament": {
            "id": "sr:tournament:3",
            "name": "World Championship",
            "sport": {
                "id": "sr:sport:4",
                "name": "Ice Hockey"
            },
            "category": {
                "id": "sr:category:56",
                "name": "International"
            }
        },
        "competitors": [{
            "id": "sr:competitor:5730",
            "name": "Czech Republic",
            "country": "Czech Republic",
            "country_code": "CZE",
            "abbreviation": "CZE",
            "qualifier": "home"
        }, {
            "id": "sr:competitor:5737",
            "name": "Russia",
            "country": "Russia",
            "country_code": "RUS",
            "abbreviation": "RUS",
            "qualifier": "away"
        }]
    }, {
        "id": "sr:match:13004632",
        "scheduled": "2018-05-10T18:15:00+00:00",
        "start_time_tbd": false,
        "status": "not_started",
        "tournament_round": {
            "type": "group",
            "number": 1,
            "group": "B"
        },
        "season": {
            "id": "sr:season:47534",
            "name": "World Championship 2018",
            "start_date": "2018-05-04",
            "end_date": "2018-05-21",
            "year": "2018",
            "tournament_id": "sr:tournament:3"
        },
        "tournament": {
            "id": "sr:tournament:3",
            "name": "World Championship",
            "sport": {
                "id": "sr:sport:4",
                "name": "Ice Hockey"
            },
            "category": {
                "id": "sr:category:56",
                "name": "International"
            }
        },
        "competitors": [{
            "id": "sr:competitor:5913",
            "name": "Norway",
            "country": "Norway",
            "country_code": "NOR",
            "abbreviation": "NOR",
            "qualifier": "home"
        }, {
            "id": "sr:competitor:5729",
            "name": "Canada",
            "country": "Canada",
            "country_code": "CAN",
            "abbreviation": "CAN",
            "qualifier": "away"
        }]
    }, {
        "id": "sr:match:13004560",
        "scheduled": "2018-05-11T14:15:00+00:00",
        "start_time_tbd": false,
        "status": "not_started",
        "tournament_round": {
            "type": "group",
            "number": 1,
            "group": "A"
        },
        "season": {
            "id": "sr:season:47534",
            "name": "World Championship 2018",
            "start_date": "2018-05-04",
            "end_date": "2018-05-21",
            "year": "2018",
            "tournament_id": "sr:tournament:3"
        },
        "tournament": {
            "id": "sr:tournament:3",
            "name": "World Championship",
            "sport": {
                "id": "sr:sport:4",
                "name": "Ice Hockey"
            },
            "category": {
                "id": "sr:category:56",
                "name": "International"
            }
        },
        "competitors": [{
            "id": "sr:competitor:7052",
            "name": "France",
            "country": "France",
            "country_code": "FRA",
            "abbreviation": "FRA",
            "qualifier": "home"
        }, {
            "id": "sr:competitor:5720",
            "name": "Austria",
            "country": "Austria",
            "country_code": "AUT",
            "abbreviation": "AUT",
            "qualifier": "away"
        }]
    }, {
        "id": "sr:match:13004634",
        "scheduled": "2018-05-11T14:15:00+00:00",
        "start_time_tbd": false,
        "status": "not_started",
        "tournament_round": {
            "type": "group",
            "number": 1,
            "group": "B"
        },
        "season": {
            "id": "sr:season:47534",
            "name": "World Championship 2018",
            "start_date": "2018-05-04",
            "end_date": "2018-05-21",
            "year": "2018",
            "tournament_id": "sr:tournament:3"
        },
        "tournament": {
            "id": "sr:tournament:3",
            "name": "World Championship",
            "sport": {
                "id": "sr:sport:4",
                "name": "Ice Hockey"
            },
            "category": {
                "id": "sr:category:56",
                "name": "International"
            }
        },
        "competitors": [{
            "id": "sr:competitor:5917",
            "name": "Denmark",
            "country": "Denmark",
            "country_code": "DNK",
            "abbreviation": "DEN",
            "qualifier": "home"
        }, {
            "id": "sr:competitor:5913",
            "name": "Norway",
            "country": "Norway",
            "country_code": "NOR",
            "abbreviation": "NOR",
            "qualifier": "away"
        }]
    }, {
        "id": "sr:match:13004562",
        "scheduled": "2018-05-11T18:15:00+00:00",
        "start_time_tbd": false,
        "status": "not_started",
        "tournament_round": {
            "type": "group",
            "number": 1,
            "group": "A"
        },
        "season": {
            "id": "sr:season:47534",
            "name": "World Championship 2018",
            "start_date": "2018-05-04",
            "end_date": "2018-05-21",
            "year": "2018",
            "tournament_id": "sr:tournament:3"
        },
        "tournament": {
            "id": "sr:tournament:3",
            "name": "World Championship",
            "sport": {
                "id": "sr:sport:4",
                "name": "Ice Hockey"
            },
            "category": {
                "id": "sr:category:56",
                "name": "International"
            }
        },
        "competitors": [{
            "id": "sr:competitor:5916",
            "name": "Belarus",
            "country": "Belarus",
            "country_code": "BLR",
            "abbreviation": "BLR",
            "qualifier": "home"
        }, {
            "id": "sr:competitor:5730",
            "name": "Czech Republic",
            "country": "Czech Republic",
            "country_code": "CZE",
            "abbreviation": "CZE",
            "qualifier": "away"
        }]
    }, {
        "id": "sr:match:13004636",
        "scheduled": "2018-05-11T18:15:00+00:00",
        "start_time_tbd": false,
        "status": "not_started",
        "tournament_round": {
            "type": "group",
            "number": 1,
            "group": "B"
        },
        "season": {
            "id": "sr:season:47534",
            "name": "World Championship 2018",
            "start_date": "2018-05-04",
            "end_date": "2018-05-21",
            "year": "2018",
            "tournament_id": "sr:tournament:3"
        },
        "tournament": {
            "id": "sr:tournament:3",
            "name": "World Championship",
            "sport": {
                "id": "sr:sport:4",
                "name": "Ice Hockey"
            },
            "category": {
                "id": "sr:category:56",
                "name": "International"
            }
        },
        "competitors": [{
            "id": "sr:competitor:5738",
            "name": "USA",
            "country": "USA",
            "country_code": "USA",
            "abbreviation": "USA",
            "qualifier": "home"
        }, {
            "id": "sr:competitor:8001",
            "name": "Republic of Korea",
            "country": "Republic of Korea",
            "country_code": "KOR",
            "abbreviation": "RK",
            "qualifier": "away"
        }]
    }, {
        "id": "sr:match:13004568",
        "scheduled": "2018-05-12T10:15:00+00:00",
        "start_time_tbd": false,
        "status": "not_started",
        "tournament_round": {
            "type": "group",
            "number": 1,
            "group": "A"
        },
        "season": {
            "id": "sr:season:47534",
            "name": "World Championship 2018",
            "start_date": "2018-05-04",
            "end_date": "2018-05-21",
            "year": "2018",
            "tournament_id": "sr:tournament:3"
        },
        "tournament": {
            "id": "sr:tournament:3",
            "name": "World Championship",
            "sport": {
                "id": "sr:sport:4",
                "name": "Ice Hockey"
            },
            "category": {
                "id": "sr:category:56",
                "name": "International"
            }
        },
        "competitors": [{
            "id": "sr:competitor:5736",
            "name": "Slovakia",
            "country": "Slovakia",
            "country_code": "SVK",
            "abbreviation": "SVK",
            "qualifier": "home"
        }, {
            "id": "sr:competitor:5735",
            "name": "Sweden",
            "country": "Sweden",
            "country_code": "SWE",
            "abbreviation": "SWE",
            "qualifier": "away"
        }]
    }, {
        "id": "sr:match:13004638",
        "scheduled": "2018-05-12T10:15:00+00:00",
        "start_time_tbd": false,
        "status": "not_started",
        "tournament_round": {
            "type": "group",
            "number": 1,
            "group": "B"
        },
        "season": {
            "id": "sr:season:47534",
            "name": "World Championship 2018",
            "start_date": "2018-05-04",
            "end_date": "2018-05-21",
            "year": "2018",
            "tournament_id": "sr:tournament:3"
        },
        "tournament": {
            "id": "sr:tournament:3",
            "name": "World Championship",
            "sport": {
                "id": "sr:sport:4",
                "name": "Ice Hockey"
            },
            "category": {
                "id": "sr:category:56",
                "name": "International"
            }
        },
        "competitors": [{
            "id": "sr:competitor:5739",
            "name": "Latvia",
            "country": "Latvia",
            "country_code": "LVA",
            "abbreviation": "LAT",
            "qualifier": "home"
        }, {
            "id": "sr:competitor:5732",
            "name": "Germany",
            "country": "Germany",
            "country_code": "DEU",
            "abbreviation": "GER",
            "qualifier": "away"
        }]
    }, {
        "id": "sr:match:13004570",
        "scheduled": "2018-05-12T14:15:00+00:00",
        "start_time_tbd": false,
        "status": "not_started",
        "tournament_round": {
            "type": "group",
            "number": 1,
            "group": "A"
        },
        "season": {
            "id": "sr:season:47534",
            "name": "World Championship 2018",
            "start_date": "2018-05-04",
            "end_date": "2018-05-21",
            "year": "2018",
            "tournament_id": "sr:tournament:3"
        },
        "tournament": {
            "id": "sr:tournament:3",
            "name": "World Championship",
            "sport": {
                "id": "sr:sport:4",
                "name": "Ice Hockey"
            },
            "category": {
                "id": "sr:category:56",
                "name": "International"
            }
        },
        "competitors": [{
            "id": "sr:competitor:5720",
            "name": "Austria",
            "country": "Austria",
            "country_code": "AUT",
            "abbreviation": "AUT",
            "qualifier": "home"
        }, {
            "id": "sr:competitor:5916",
            "name": "Belarus",
            "country": "Belarus",
            "country_code": "BLR",
            "abbreviation": "BLR",
            "qualifier": "away"
        }]
    }, {
        "id": "sr:match:13004640",
        "scheduled": "2018-05-12T14:15:00+00:00",
        "start_time_tbd": false,
        "status": "not_started",
        "tournament_round": {
            "type": "group",
            "number": 1,
            "group": "B"
        },
        "season": {
            "id": "sr:season:47534",
            "name": "World Championship 2018",
            "start_date": "2018-05-04",
            "end_date": "2018-05-21",
            "year": "2018",
            "tournament_id": "sr:tournament:3"
        },
        "tournament": {
            "id": "sr:tournament:3",
            "name": "World Championship",
            "sport": {
                "id": "sr:sport:4",
                "name": "Ice Hockey"
            },
            "category": {
                "id": "sr:category:56",
                "name": "International"
            }
        },
        "competitors": [{
            "id": "sr:competitor:5917",
            "name": "Denmark",
            "country": "Denmark",
            "country_code": "DNK",
            "abbreviation": "DEN",
            "qualifier": "home"
        }, {
            "id": "sr:competitor:8001",
            "name": "Republic of Korea",
            "country": "Republic of Korea",
            "country_code": "KOR",
            "abbreviation": "RK",
            "qualifier": "away"
        }]
    }, {
        "id": "sr:match:13004572",
        "scheduled": "2018-05-12T18:15:00+00:00",
        "start_time_tbd": false,
        "status": "not_started",
        "tournament_round": {
            "type": "group",
            "number": 1,
            "group": "A"
        },
        "season": {
            "id": "sr:season:47534",
            "name": "World Championship 2018",
            "start_date": "2018-05-04",
            "end_date": "2018-05-21",
            "year": "2018",
            "tournament_id": "sr:tournament:3"
        },
        "tournament": {
            "id": "sr:tournament:3",
            "name": "World Championship",
            "sport": {
                "id": "sr:sport:4",
                "name": "Ice Hockey"
            },
            "category": {
                "id": "sr:category:56",
                "name": "International"
            }
        },
        "competitors": [{
            "id": "sr:competitor:5737",
            "name": "Russia",
            "country": "Russia",
            "country_code": "RUS",
            "abbreviation": "RUS",
            "qualifier": "home"
        }, {
            "id": "sr:competitor:5734",
            "name": "Switzerland",
            "country": "Switzerland",
            "country_code": "CHE",
            "abbreviation": "SUI",
            "qualifier": "away"
        }]
    }, {
        "id": "sr:match:13004642",
        "scheduled": "2018-05-12T18:15:00+00:00",
        "start_time_tbd": false,
        "status": "not_started",
        "tournament_round": {
            "type": "group",
            "number": 1,
            "group": "B"
        },
        "season": {
            "id": "sr:season:47534",
            "name": "World Championship 2018",
            "start_date": "2018-05-04",
            "end_date": "2018-05-21",
            "year": "2018",
            "tournament_id": "sr:tournament:3"
        },
        "tournament": {
            "id": "sr:tournament:3",
            "name": "World Championship",
            "sport": {
                "id": "sr:sport:4",
                "name": "Ice Hockey"
            },
            "category": {
                "id": "sr:category:56",
                "name": "International"
            }
        },
        "competitors": [{
            "id": "sr:competitor:5729",
            "name": "Canada",
            "country": "Canada",
            "country_code": "CAN",
            "abbreviation": "CAN",
            "qualifier": "home"
        }, {
            "id": "sr:competitor:5731",
            "name": "Finland",
            "country": "Finland",
            "country_code": "FIN",
            "abbreviation": "FIN",
            "qualifier": "away"
        }]
    }, {
        "id": "sr:match:13004574",
        "scheduled": "2018-05-13T14:15:00+00:00",
        "start_time_tbd": false,
        "status": "not_started",
        "tournament_round": {
            "type": "group",
            "number": 1,
            "group": "A"
        },
        "season": {
            "id": "sr:season:47534",
            "name": "World Championship 2018",
            "start_date": "2018-05-04",
            "end_date": "2018-05-21",
            "year": "2018",
            "tournament_id": "sr:tournament:3"
        },
        "tournament": {
            "id": "sr:tournament:3",
            "name": "World Championship",
            "sport": {
                "id": "sr:sport:4",
                "name": "Ice Hockey"
            },
            "category": {
                "id": "sr:category:56",
                "name": "International"
            }
        },
        "competitors": [{
            "id": "sr:competitor:7052",
            "name": "France",
            "country": "France",
            "country_code": "FRA",
            "abbreviation": "FRA",
            "qualifier": "home"
        }, {
            "id": "sr:competitor:5730",
            "name": "Czech Republic",
            "country": "Czech Republic",
            "country_code": "CZE",
            "abbreviation": "CZE",
            "qualifier": "away"
        }]
    }, {
        "id": "sr:match:13004644",
        "scheduled": "2018-05-13T14:15:00+00:00",
        "start_time_tbd": false,
        "status": "not_started",
        "tournament_round": {
            "type": "group",
            "number": 1,
            "group": "B"
        },
        "season": {
            "id": "sr:season:47534",
            "name": "World Championship 2018",
            "start_date": "2018-05-04",
            "end_date": "2018-05-21",
            "year": "2018",
            "tournament_id": "sr:tournament:3"
        },
        "tournament": {
            "id": "sr:tournament:3",
            "name": "World Championship",
            "sport": {
                "id": "sr:sport:4",
                "name": "Ice Hockey"
            },
            "category": {
                "id": "sr:category:56",
                "name": "International"
            }
        },
        "competitors": [{
            "id": "sr:competitor:5913",
            "name": "Norway",
            "country": "Norway",
            "country_code": "NOR",
            "abbreviation": "NOR",
            "qualifier": "home"
        }, {
            "id": "sr:competitor:5738",
            "name": "USA",
            "country": "USA",
            "country_code": "USA",
            "abbreviation": "USA",
            "qualifier": "away"
        }]
    }, {
        "id": "sr:match:13004576",
        "scheduled": "2018-05-13T18:15:00+00:00",
        "start_time_tbd": false,
        "status": "not_started",
        "tournament_round": {
            "type": "group",
            "number": 1,
            "group": "A"
        },
        "season": {
            "id": "sr:season:47534",
            "name": "World Championship 2018",
            "start_date": "2018-05-04",
            "end_date": "2018-05-21",
            "year": "2018",
            "tournament_id": "sr:tournament:3"
        },
        "tournament": {
            "id": "sr:tournament:3",
            "name": "World Championship",
            "sport": {
                "id": "sr:sport:4",
                "name": "Ice Hockey"
            },
            "category": {
                "id": "sr:category:56",
                "name": "International"
            }
        },
        "competitors": [{
            "id": "sr:competitor:5734",
            "name": "Switzerland",
            "country": "Switzerland",
            "country_code": "CHE",
            "abbreviation": "SUI",
            "qualifier": "home"
        }, {
            "id": "sr:competitor:5735",
            "name": "Sweden",
            "country": "Sweden",
            "country_code": "SWE",
            "abbreviation": "SWE",
            "qualifier": "away"
        }]
    }, {
        "id": "sr:match:13004646",
        "scheduled": "2018-05-13T18:15:00+00:00",
        "start_time_tbd": false,
        "status": "not_started",
        "tournament_round": {
            "type": "group",
            "number": 1,
            "group": "B"
        },
        "season": {
            "id": "sr:season:47534",
            "name": "World Championship 2018",
            "start_date": "2018-05-04",
            "end_date": "2018-05-21",
            "year": "2018",
            "tournament_id": "sr:tournament:3"
        },
        "tournament": {
            "id": "sr:tournament:3",
            "name": "World Championship",
            "sport": {
                "id": "sr:sport:4",
                "name": "Ice Hockey"
            },
            "category": {
                "id": "sr:category:56",
                "name": "International"
            }
        },
        "competitors": [{
            "id": "sr:competitor:5732",
            "name": "Germany",
            "country": "Germany",
            "country_code": "DEU",
            "abbreviation": "GER",
            "qualifier": "home"
        }, {
            "id": "sr:competitor:5731",
            "name": "Finland",
            "country": "Finland",
            "country_code": "FIN",
            "abbreviation": "FIN",
            "qualifier": "away"
        }]
    }, {
        "id": "sr:match:13004578",
        "scheduled": "2018-05-14T14:15:00+00:00",
        "start_time_tbd": false,
        "status": "not_started",
        "tournament_round": {
            "type": "group",
            "number": 1,
            "group": "A"
        },
        "season": {
            "id": "sr:season:47534",
            "name": "World Championship 2018",
            "start_date": "2018-05-04",
            "end_date": "2018-05-21",
            "year": "2018",
            "tournament_id": "sr:tournament:3"
        },
        "tournament": {
            "id": "sr:tournament:3",
            "name": "World Championship",
            "sport": {
                "id": "sr:sport:4",
                "name": "Ice Hockey"
            },
            "category": {
                "id": "sr:category:56",
                "name": "International"
            }
        },
        "competitors": [{
            "id": "sr:competitor:5737",
            "name": "Russia",
            "country": "Russia",
            "country_code": "RUS",
            "abbreviation": "RUS",
            "qualifier": "home"
        }, {
            "id": "sr:competitor:5736",
            "name": "Slovakia",
            "country": "Slovakia",
            "country_code": "SVK",
            "abbreviation": "SVK",
            "qualifier": "away"
        }]
    }, {
        "id": "sr:match:13004648",
        "scheduled": "2018-05-14T14:15:00+00:00",
        "start_time_tbd": false,
        "status": "not_started",
        "tournament_round": {
            "type": "group",
            "number": 1,
            "group": "B"
        },
        "season": {
            "id": "sr:season:47534",
            "name": "World Championship 2018",
            "start_date": "2018-05-04",
            "end_date": "2018-05-21",
            "year": "2018",
            "tournament_id": "sr:tournament:3"
        },
        "tournament": {
            "id": "sr:tournament:3",
            "name": "World Championship",
            "sport": {
                "id": "sr:sport:4",
                "name": "Ice Hockey"
            },
            "category": {
                "id": "sr:category:56",
                "name": "International"
            }
        },
        "competitors": [{
            "id": "sr:competitor:8001",
            "name": "Republic of Korea",
            "country": "Republic of Korea",
            "country_code": "KOR",
            "abbreviation": "RK",
            "qualifier": "home"
        }, {
            "id": "sr:competitor:5913",
            "name": "Norway",
            "country": "Norway",
            "country_code": "NOR",
            "abbreviation": "NOR",
            "qualifier": "away"
        }]
    }, {
        "id": "sr:match:13004580",
        "scheduled": "2018-05-14T18:15:00+00:00",
        "start_time_tbd": false,
        "status": "not_started",
        "tournament_round": {
            "type": "group",
            "number": 1,
            "group": "A"
        },
        "season": {
            "id": "sr:season:47534",
            "name": "World Championship 2018",
            "start_date": "2018-05-04",
            "end_date": "2018-05-21",
            "year": "2018",
            "tournament_id": "sr:tournament:3"
        },
        "tournament": {
            "id": "sr:tournament:3",
            "name": "World Championship",
            "sport": {
                "id": "sr:sport:4",
                "name": "Ice Hockey"
            },
            "category": {
                "id": "sr:category:56",
                "name": "International"
            }
        },
        "competitors": [{
            "id": "sr:competitor:5730",
            "name": "Czech Republic",
            "country": "Czech Republic",
            "country_code": "CZE",
            "abbreviation": "CZE",
            "qualifier": "home"
        }, {
            "id": "sr:competitor:5720",
            "name": "Austria",
            "country": "Austria",
            "country_code": "AUT",
            "abbreviation": "AUT",
            "qualifier": "away"
        }]
    }, {
        "id": "sr:match:13004650",
        "scheduled": "2018-05-14T18:15:00+00:00",
        "start_time_tbd": false,
        "status": "not_started",
        "tournament_round": {
            "type": "group",
            "number": 1,
            "group": "B"
        },
        "season": {
            "id": "sr:season:47534",
            "name": "World Championship 2018",
            "start_date": "2018-05-04",
            "end_date": "2018-05-21",
            "year": "2018",
            "tournament_id": "sr:tournament:3"
        },
        "tournament": {
            "id": "sr:tournament:3",
            "name": "World Championship",
            "sport": {
                "id": "sr:sport:4",
                "name": "Ice Hockey"
            },
            "category": {
                "id": "sr:category:56",
                "name": "International"
            }
        },
        "competitors": [{
            "id": "sr:competitor:5729",
            "name": "Canada",
            "country": "Canada",
            "country_code": "CAN",
            "abbreviation": "CAN",
            "qualifier": "home"
        }, {
            "id": "sr:competitor:5739",
            "name": "Latvia",
            "country": "Latvia",
            "country_code": "LVA",
            "abbreviation": "LAT",
            "qualifier": "away"
        }]
    }, {
        "id": "sr:match:13004584",
        "scheduled": "2018-05-15T10:15:00+00:00",
        "start_time_tbd": false,
        "status": "not_started",
        "tournament_round": {
            "type": "group",
            "number": 1,
            "group": "A"
        },
        "season": {
            "id": "sr:season:47534",
            "name": "World Championship 2018",
            "start_date": "2018-05-04",
            "end_date": "2018-05-21",
            "year": "2018",
            "tournament_id": "sr:tournament:3"
        },
        "tournament": {
            "id": "sr:tournament:3",
            "name": "World Championship",
            "sport": {
                "id": "sr:sport:4",
                "name": "Ice Hockey"
            },
            "category": {
                "id": "sr:category:56",
                "name": "International"
            }
        },
        "competitors": [{
            "id": "sr:competitor:5734",
            "name": "Switzerland",
            "country": "Switzerland",
            "country_code": "CHE",
            "abbreviation": "SUI",
            "qualifier": "home"
        }, {
            "id": "sr:competitor:7052",
            "name": "France",
            "country": "France",
            "country_code": "FRA",
            "abbreviation": "FRA",
            "qualifier": "away"
        }]
    }, {
        "id": "sr:match:13004652",
        "scheduled": "2018-05-15T10:15:00+00:00",
        "start_time_tbd": false,
        "status": "not_started",
        "tournament_round": {
            "type": "group",
            "number": 1,
            "group": "B"
        },
        "season": {
            "id": "sr:season:47534",
            "name": "World Championship 2018",
            "start_date": "2018-05-04",
            "end_date": "2018-05-21",
            "year": "2018",
            "tournament_id": "sr:tournament:3"
        },
        "tournament": {
            "id": "sr:tournament:3",
            "name": "World Championship",
            "sport": {
                "id": "sr:sport:4",
                "name": "Ice Hockey"
            },
            "category": {
                "id": "sr:category:56",
                "name": "International"
            }
        },
        "competitors": [{
            "id": "sr:competitor:5731",
            "name": "Finland",
            "country": "Finland",
            "country_code": "FIN",
            "abbreviation": "FIN",
            "qualifier": "home"
        }, {
            "id": "sr:competitor:5738",
            "name": "USA",
            "country": "USA",
            "country_code": "USA",
            "abbreviation": "USA",
            "qualifier": "away"
        }]
    }, {
        "id": "sr:match:13004586",
        "scheduled": "2018-05-15T14:15:00+00:00",
        "start_time_tbd": false,
        "status": "not_started",
        "tournament_round": {
            "type": "group",
            "number": 1,
            "group": "A"
        },
        "season": {
            "id": "sr:season:47534",
            "name": "World Championship 2018",
            "start_date": "2018-05-04",
            "end_date": "2018-05-21",
            "year": "2018",
            "tournament_id": "sr:tournament:3"
        },
        "tournament": {
            "id": "sr:tournament:3",
            "name": "World Championship",
            "sport": {
                "id": "sr:sport:4",
                "name": "Ice Hockey"
            },
            "category": {
                "id": "sr:category:56",
                "name": "International"
            }
        },
        "competitors": [{
            "id": "sr:competitor:5916",
            "name": "Belarus",
            "country": "Belarus",
            "country_code": "BLR",
            "abbreviation": "BLR",
            "qualifier": "home"
        }, {
            "id": "sr:competitor:5736",
            "name": "Slovakia",
            "country": "Slovakia",
            "country_code": "SVK",
            "abbreviation": "SVK",
            "qualifier": "away"
        }]
    }, {
        "id": "sr:match:13004654",
        "scheduled": "2018-05-15T14:15:00+00:00",
        "start_time_tbd": false,
        "status": "not_started",
        "tournament_round": {
            "type": "group",
            "number": 1,
            "group": "B"
        },
        "season": {
            "id": "sr:season:47534",
            "name": "World Championship 2018",
            "start_date": "2018-05-04",
            "end_date": "2018-05-21",
            "year": "2018",
            "tournament_id": "sr:tournament:3"
        },
        "tournament": {
            "id": "sr:tournament:3",
            "name": "World Championship",
            "sport": {
                "id": "sr:sport:4",
                "name": "Ice Hockey"
            },
            "category": {
                "id": "sr:category:56",
                "name": "International"
            }
        },
        "competitors": [{
            "id": "sr:competitor:5729",
            "name": "Canada",
            "country": "Canada",
            "country_code": "CAN",
            "abbreviation": "CAN",
            "qualifier": "home"
        }, {
            "id": "sr:competitor:5732",
            "name": "Germany",
            "country": "Germany",
            "country_code": "DEU",
            "abbreviation": "GER",
            "qualifier": "away"
        }]
    }, {
        "id": "sr:match:13004588",
        "scheduled": "2018-05-15T18:15:00+00:00",
        "start_time_tbd": false,
        "status": "not_started",
        "tournament_round": {
            "type": "group",
            "number": 1,
            "group": "A"
        },
        "season": {
            "id": "sr:season:47534",
            "name": "World Championship 2018",
            "start_date": "2018-05-04",
            "end_date": "2018-05-21",
            "year": "2018",
            "tournament_id": "sr:tournament:3"
        },
        "tournament": {
            "id": "sr:tournament:3",
            "name": "World Championship",
            "sport": {
                "id": "sr:sport:4",
                "name": "Ice Hockey"
            },
            "category": {
                "id": "sr:category:56",
                "name": "International"
            }
        },
        "competitors": [{
            "id": "sr:competitor:5737",
            "name": "Russia",
            "country": "Russia",
            "country_code": "RUS",
            "abbreviation": "RUS",
            "qualifier": "home"
        }, {
            "id": "sr:competitor:5735",
            "name": "Sweden",
            "country": "Sweden",
            "country_code": "SWE",
            "abbreviation": "SWE",
            "qualifier": "away"
        }]
    }, {
        "id": "sr:match:13004656",
        "scheduled": "2018-05-15T18:15:00+00:00",
        "start_time_tbd": false,
        "status": "not_started",
        "tournament_round": {
            "type": "group",
            "number": 1,
            "group": "B"
        },
        "season": {
            "id": "sr:season:47534",
            "name": "World Championship 2018",
            "start_date": "2018-05-04",
            "end_date": "2018-05-21",
            "year": "2018",
            "tournament_id": "sr:tournament:3"
        },
        "tournament": {
            "id": "sr:tournament:3",
            "name": "World Championship",
            "sport": {
                "id": "sr:sport:4",
                "name": "Ice Hockey"
            },
            "category": {
                "id": "sr:category:56",
                "name": "International"
            }
        },
        "competitors": [{
            "id": "sr:competitor:5739",
            "name": "Latvia",
            "country": "Latvia",
            "country_code": "LVA",
            "abbreviation": "LAT",
            "qualifier": "home"
        }, {
            "id": "sr:competitor:5917",
            "name": "Denmark",
            "country": "Denmark",
            "country_code": "DNK",
            "abbreviation": "DEN",
            "qualifier": "away"
        }]
    }]
}
