{
	"ProjectName": "TipZone",
	"ProjectPath": "/Users/dbreuer83/Working/TipZone/TipZone",
	"InitializationTime": "2018-03-26-21-25-15",
	"LastConfigurationTime": "2018-03-27-01-07-18",
	"LastNPMInstallTime": "",
	"FrontendLastBuildTime": "2018-06-16-11-53-35",
	"LastPublishTime": "2018-06-16-11-55-13",
	"BackendLastBuildTime": "2018-06-18-23-41-01",
	"BackendProjectID": "bf262a9f-09ed-424e-88e7-18dfa323dce4",
	"BackendProjectName": "TipZone",
	"BackendProjectConsoleUrl": "https://console.aws.amazon.com/mobilehub/home#/bf262a9f-09ed-424e-88e7-18dfa323dce4/build",
	"BackendProjectCreationTime": "2018-01-24T07:08:47.037Z",
	"BackendProjectLastUpdatedTime": "2018-06-18T21:41:33.891Z",
	"BackendLastSyncTime": "2018-06-18-23-49-12",
	"BackendLastPushSuccessful": true,
	"BackendLastPushTime": "2018-06-18-23-47-33"
}